<?xml version="1.0" encoding="UTF-8" standalone="no"?>
<!DOCTYPE svg PUBLIC "-//W3C//DTD SVG 1.1//EN" "http://www.w3.org/Graphics/SVG/1.1/DTD/svg11.dtd">
<svg width="100%" height="100%" viewBox="0 0 93 57" version="1.1" xmlns="http://www.w3.org/2000/svg" xmlns:xlink="http://www.w3.org/1999/xlink" xml:space="preserve" xmlns:serif="http://www.serif.com/" style="fill-rule:evenodd;clip-rule:evenodd;stroke-linejoin:round;stroke-miterlimit:1.41421;">
    <g id="Group-38" transform="matrix(1,0,0,1,0.785156,0.857422)">
        <g id="Group-3" transform="matrix(1,0,0,1,0,10.5487)">
            <path id="Fill-1" d="M4.217,13.473C4.217,14.267 4.426,14.907 4.846,15.395C5.265,15.882 5.871,16.126 6.665,16.126C7.39,16.126 7.968,15.944 8.399,15.582C8.83,15.219 9.046,14.675 9.046,13.949C9.046,13.36 8.876,12.912 8.535,12.606C8.195,12.3 7.798,12.056 7.345,11.875L4.047,10.685C2.755,10.231 1.78,9.591 1.122,8.763C0.465,7.936 0.136,6.876 0.136,5.584C0.136,4.835 0.26,4.127 0.51,3.459C0.76,2.79 1.156,2.206 1.7,1.707C2.244,1.209 2.942,0.812 3.792,0.517C4.641,0.223 5.667,0.075 6.869,0.075C9,0.075 10.576,0.529 11.596,1.435C12.616,2.342 13.126,3.623 13.126,5.278L13.126,6.026L8.91,6.026C8.91,5.074 8.756,4.377 8.45,3.935C8.144,3.492 7.605,3.271 6.835,3.271C6.245,3.271 5.73,3.436 5.288,3.765C4.846,4.093 4.625,4.587 4.625,5.244C4.625,5.698 4.766,6.106 5.05,6.468C5.333,6.831 5.871,7.137 6.665,7.386L9.488,8.338C10.961,8.837 12.004,9.489 12.616,10.294C13.228,11.099 13.534,12.192 13.534,13.575C13.534,14.55 13.364,15.395 13.024,16.109C12.684,16.823 12.213,17.418 11.613,17.894C11.012,18.37 10.298,18.71 9.471,18.914C8.643,19.118 7.73,19.22 6.733,19.22C5.418,19.22 4.324,19.095 3.451,18.846C2.578,18.597 1.887,18.223 1.377,17.724C0.867,17.225 0.51,16.619 0.306,15.905C0.102,15.191 0,14.392 0,13.507L0,12.861L4.217,12.861L4.217,13.473Z" style="fill:rgb(0,155,176);"/>
        </g>
        <path id="Fill-4" d="M19.178,22.832C19.224,23.626 19.331,24.305 19.502,24.872C19.671,25.439 19.926,25.881 20.267,26.198C20.606,26.516 21.059,26.674 21.627,26.674C22.579,26.674 23.236,26.176 23.599,25.178C23.962,24.181 24.143,22.537 24.143,20.247C24.143,17.958 23.962,16.314 23.599,15.317C23.236,14.319 22.579,13.82 21.627,13.82C21.059,13.82 20.606,13.979 20.267,14.296C19.926,14.614 19.671,15.056 19.502,15.623C19.331,16.189 19.224,16.87 19.178,17.663C19.133,18.457 19.111,19.318 19.111,20.247C19.111,21.177 19.133,22.038 19.178,22.832M14.792,16.099C15.041,14.897 15.449,13.894 16.016,13.089C16.582,12.285 17.325,11.672 18.243,11.253C19.162,10.834 20.289,10.624 21.627,10.624C23.032,10.601 24.199,10.788 25.129,11.185C26.059,11.582 26.796,12.188 27.339,13.004C27.884,13.82 28.269,14.829 28.496,16.031C28.722,17.232 28.836,18.638 28.836,20.247C28.836,21.811 28.711,23.195 28.462,24.396C28.212,25.598 27.804,26.601 27.238,27.406C26.671,28.21 25.928,28.805 25.01,29.191C24.092,29.576 22.964,29.769 21.627,29.769C20.221,29.791 19.053,29.616 18.124,29.242C17.194,28.868 16.458,28.279 15.914,27.474C15.37,26.669 14.984,25.66 14.758,24.447C14.531,23.235 14.418,21.834 14.418,20.247C14.418,18.683 14.542,17.301 14.792,16.099" style="fill:rgb(0,155,176);"/>
        <path id="Fill-6" d="M39.224,16.371C39.168,15.94 39.066,15.549 38.918,15.198C38.771,14.846 38.561,14.563 38.289,14.347C38.017,14.132 37.654,14.024 37.201,14.024C36.634,14.024 36.169,14.155 35.807,14.415C35.444,14.676 35.172,15.061 34.991,15.571C34.809,16.082 34.685,16.728 34.616,17.51C34.549,18.292 34.515,19.216 34.515,20.281C34.515,21.415 34.549,22.384 34.616,23.188C34.685,23.994 34.809,24.657 34.991,25.178C35.172,25.7 35.427,26.079 35.756,26.317C36.084,26.555 36.51,26.674 37.031,26.674C37.824,26.674 38.403,26.334 38.765,25.654C39.128,24.974 39.309,23.886 39.309,22.39L43.798,22.39C43.798,24.793 43.259,26.623 42.183,27.882C41.106,29.14 39.32,29.769 36.827,29.769C35.648,29.769 34.622,29.627 33.75,29.344C32.876,29.06 32.152,28.55 31.573,27.814C30.995,27.077 30.558,26.091 30.264,24.855C29.969,23.62 29.822,22.084 29.822,20.247C29.822,18.366 30.003,16.807 30.366,15.571C30.728,14.336 31.239,13.35 31.896,12.613C32.553,11.877 33.336,11.361 34.243,11.066C35.149,10.771 36.147,10.624 37.235,10.624C39.412,10.624 41.049,11.258 42.149,12.528C43.249,13.798 43.798,15.52 43.798,17.697L39.309,17.697C39.309,17.244 39.281,16.801 39.224,16.371" style="fill:rgb(0,155,176);"/>
        <path id="Fill-8" d="M50.259,17.935L50.327,17.935L55.054,11.1L60.223,11.1L54.952,18.309L61.005,29.395L55.836,29.395L51.925,21.88L50.259,24.056L50.259,32.898L45.567,49.323L45.567,5.115L50.259,5.115L50.259,17.935Z" style="fill:rgb(0,155,176);"/>
        <path id="Fill-10" d="M34.747,43.95C34.747,44.744 34.956,45.384 35.376,45.871C35.795,46.359 36.402,46.602 37.195,46.602C37.921,46.602 38.498,46.421 38.93,46.058C39.36,45.696 39.576,45.152 39.576,44.426C39.576,43.837 39.405,43.389 39.066,43.083C38.725,42.777 38.329,42.533 37.875,42.351L34.577,41.161C33.285,40.708 32.309,40.068 31.653,39.24C30.995,38.413 30.666,37.353 30.666,36.06C30.666,35.312 30.791,34.604 31.04,33.935C31.29,33.267 31.687,32.683 32.23,32.184C32.775,31.685 33.472,31.289 34.322,30.994C35.172,30.699 36.197,30.552 37.399,30.552C39.53,30.552 41.106,31.006 42.126,31.912C43.146,32.819 43.656,34.1 43.656,35.755L43.656,36.503L39.44,36.503C39.44,35.551 39.287,34.854 38.981,34.411C38.675,33.969 38.136,33.748 37.365,33.748C36.776,33.748 36.26,33.913 35.818,34.241C35.376,34.57 35.155,35.063 35.155,35.721C35.155,36.175 35.297,36.582 35.58,36.945C35.864,37.308 36.402,37.614 37.195,37.863L40.018,38.815C41.491,39.314 42.534,39.966 43.146,40.77C43.759,41.575 44.064,42.669 44.064,44.052C44.064,45.027 43.895,45.871 43.554,46.586C43.214,47.299 42.743,47.895 42.143,48.37C41.542,48.847 40.828,49.187 40.001,49.391C39.173,49.595 38.261,49.697 37.263,49.697C35.948,49.697 34.854,49.572 33.982,49.323C33.109,49.074 32.418,48.699 31.907,48.201C31.397,47.702 31.04,47.095 30.837,46.381C30.632,45.667 30.53,44.868 30.53,43.984L30.53,43.338L34.747,43.338L34.747,43.95Z" style="fill:rgb(0,155,176);"/>
        <path id="Fill-12" d="M50.259,24.056L50.253,32.898L50.321,32.898C51.228,31.334 52.713,30.552 54.776,30.552C56.271,30.552 57.422,30.96 58.227,31.776C59.031,32.592 59.434,33.918 59.434,35.755L59.434,49.323L54.741,49.323L54.741,36.707C54.741,35.755 54.583,35.091 54.265,34.717C53.948,34.343 53.438,34.156 52.735,34.156C51.08,34.156 50.253,35.165 50.253,37.183L50.253,49.323L45.56,49.323L45.567,5.115L50.259,24.056Z" style="fill:rgb(0,155,176);"/>
        <path id="Fill-14" d="M65.862,42.76C65.907,43.554 66.014,44.233 66.185,44.8C66.354,45.367 66.61,45.809 66.95,46.126C67.289,46.444 67.743,46.602 68.31,46.602C69.262,46.602 69.919,46.104 70.282,45.106C70.645,44.109 70.826,42.465 70.826,40.175C70.826,37.886 70.645,36.242 70.282,35.244C69.919,34.247 69.262,33.748 68.31,33.748C67.743,33.748 67.289,33.907 66.95,34.224C66.61,34.542 66.354,34.984 66.185,35.551C66.014,36.117 65.907,36.797 65.862,37.591C65.816,38.385 65.794,39.246 65.794,40.175C65.794,41.105 65.816,41.966 65.862,42.76M61.474,36.027C61.724,34.825 62.132,33.822 62.699,33.017C63.265,32.213 64.008,31.6 64.926,31.181C65.845,30.762 66.972,30.552 68.31,30.552C69.715,30.529 70.882,30.716 71.812,31.113C72.742,31.51 73.479,32.116 74.023,32.932C74.567,33.748 74.952,34.757 75.179,35.959C75.405,37.161 75.519,38.566 75.519,40.175C75.519,41.74 75.394,43.123 75.145,44.324C74.895,45.526 74.487,46.529 73.921,47.334C73.354,48.138 72.611,48.733 71.693,49.119C70.775,49.504 69.647,49.697 68.31,49.697C66.904,49.719 65.736,49.544 64.807,49.17C63.877,48.796 63.141,48.206 62.597,47.401C62.053,46.597 61.667,45.588 61.441,44.375C61.214,43.163 61.1,41.762 61.1,40.175C61.1,38.611 61.225,37.229 61.474,36.027" style="fill:rgb(0,155,176);"/>
        <path id="Fill-16" d="M82.337,44.681C82.643,45.69 83.317,46.194 84.36,46.194C85.381,46.194 86.044,45.69 86.349,44.681C86.655,43.672 86.809,42.17 86.809,40.175C86.809,38.181 86.655,36.678 86.349,35.669C86.044,34.661 85.381,34.156 84.36,34.156C83.317,34.156 82.643,34.661 82.337,35.669C82.031,36.678 81.878,38.181 81.878,40.175C81.878,42.17 82.031,43.672 82.337,44.681ZM81.674,31.028L81.674,32.966L81.742,32.966C82.263,32.105 82.847,31.487 83.493,31.113C84.139,30.738 84.939,30.552 85.89,30.552C87.817,30.552 89.234,31.306 90.141,32.813C91.048,34.321 91.501,36.775 91.501,40.175C91.501,43.576 91.048,46.013 90.141,47.486C89.234,48.96 87.817,49.697 85.89,49.697C85.006,49.697 84.253,49.532 83.629,49.204C83.005,48.876 82.445,48.348 81.946,47.622L81.878,47.622L81.878,55.205L77.185,55.205L77.185,31.028L81.674,31.028Z" style="fill:rgb(0,155,176);"/>
        <path id="Fill-18" d="M66.047,1.819L65.323,1.819L65.323,0.736C65.323,0.625 65.373,0.52 65.46,0.451C65.548,0.381 65.659,0.356 65.769,0.383L66.826,0.635L66.657,1.339L66.047,1.194L66.047,1.819Z" style="fill:rgb(0,155,176);"/>
        <path id="Fill-20" d="M66.036,4.676L65.312,4.671C65.318,3.871 65.32,3.14 65.322,2.53L66.046,2.532C66.044,3.142 66.041,3.875 66.036,4.676ZM74.236,6.765L73.527,6.614C73.693,5.833 73.851,5.119 73.992,4.516L74.698,4.68C74.557,5.28 74.4,5.99 74.236,6.765ZM66.011,7.532L65.287,7.523C65.296,6.794 65.303,6.071 65.308,5.384L66.032,5.389C66.027,6.078 66.02,6.802 66.011,7.532ZM73.661,9.558L72.951,9.416C73.095,8.697 73.239,7.988 73.379,7.314L74.088,7.462C73.949,8.134 73.804,8.841 73.661,9.558ZM65.965,10.39L65.241,10.375C65.256,9.685 65.268,8.963 65.278,8.237L66.002,8.246C65.992,8.975 65.98,9.699 65.965,10.39ZM73.114,12.358L72.403,12.222C72.534,11.535 72.672,10.825 72.812,10.117L73.522,10.258C73.381,10.964 73.245,11.672 73.114,12.358ZM65.875,13.253L65.152,13.22C65.18,12.604 65.204,11.877 65.224,11.087L65.948,11.105C65.928,11.901 65.904,12.634 65.875,13.253ZM72.593,15.162L71.88,15.034C71.995,14.394 72.128,13.679 72.27,12.925L72.981,13.059C72.839,13.811 72.708,14.524 72.593,15.162ZM65.494,16.149L64.791,15.973C64.909,15.504 64.989,15.121 65.034,14.804C65.064,14.596 65.09,14.297 65.114,13.925L65.837,13.972C65.811,14.367 65.782,14.685 65.751,14.906C65.702,15.249 65.618,15.656 65.494,16.149ZM72.142,17.931L71.418,17.91C71.42,17.834 71.427,17.605 71.754,15.739L72.467,15.864C72.173,17.547 72.143,17.872 72.142,17.931ZM64.706,18.907L64.011,18.703L64.185,18.116C64.331,17.626 64.479,17.13 64.611,16.654L65.308,16.848C65.175,17.328 65.026,17.828 64.879,18.322L64.706,18.907ZM73.137,20.477C72.714,19.993 72.135,19.303 71.776,18.76L72.38,18.361C72.647,18.764 73.097,19.331 73.681,20L73.137,20.477ZM64.071,21.604L63.348,21.557C63.379,21.087 63.521,20.419 63.811,19.392L64.508,19.589C64.322,20.246 64.105,21.069 64.071,21.604ZM75.113,22.577C74.635,22.105 74.117,21.565 73.616,21.015L74.152,20.528C74.644,21.068 75.152,21.598 75.621,22.06L75.113,22.577ZM65.51,23.701C64.736,23.454 63.895,23.113 63.519,22.447L64.15,22.091C64.402,22.539 65.09,22.807 65.729,23.01L65.51,23.701ZM77.471,24.354C77.06,24.148 76.733,23.961 76.474,23.782C76.269,23.641 75.987,23.404 75.637,23.078L76.129,22.547C76.535,22.924 76.764,23.102 76.885,23.186C77.116,23.345 77.414,23.516 77.796,23.707L77.471,24.354ZM68.216,24.528C67.659,24.312 67.063,24.145 66.486,23.985L66.205,23.906L66.402,23.209L66.681,23.287C67.275,23.452 67.888,23.623 68.479,23.853L68.216,24.528ZM80.109,25.513L80.248,25.178L80.075,25.499C79.415,25.226 78.739,24.946 78.128,24.667L78.428,24.008C79.032,24.284 79.701,24.56 80.352,24.829L80.248,25.178L80.109,25.513ZM70.548,26.024C70.226,25.828 69.987,25.653 69.838,25.504C69.576,25.241 69.248,25.011 68.836,24.802L69.164,24.156C69.645,24.401 70.033,24.675 70.351,24.993C70.411,25.054 70.566,25.188 70.924,25.405L70.548,26.024ZM82.673,26.664C82.176,26.384 81.431,26.063 80.767,25.786L81.046,25.118C81.764,25.418 82.501,25.736 83.028,26.033L82.673,26.664ZM73.176,27.28C72.457,26.994 71.771,26.684 71.193,26.383L71.527,25.741C72.084,26.031 72.747,26.33 73.444,26.607L73.176,27.28ZM75.927,28.186C75.261,28.014 74.563,27.795 73.852,27.537L74.1,26.857C74.789,27.107 75.465,27.319 76.108,27.486L75.927,28.186ZM82.465,28.468L82.298,27.763C82.883,27.625 83.247,27.412 83.247,27.208C83.247,27.167 83.235,27.117 83.211,27.061L83.693,26.508C83.78,26.6 83.841,26.69 83.881,26.784C83.94,26.93 83.971,27.072 83.971,27.208C83.971,27.621 83.709,28.174 82.465,28.468ZM78.808,28.643C78.531,28.624 78.251,28.6 77.969,28.571C77.556,28.528 77.108,28.455 76.637,28.354L76.788,27.646C77.235,27.742 77.658,27.811 78.044,27.851C78.316,27.879 78.587,27.902 78.856,27.92L78.808,28.643ZM80.092,28.688C79.909,28.688 79.722,28.685 79.531,28.678L79.556,27.955C79.747,27.961 79.935,27.965 80.12,27.964C80.68,27.964 81.19,27.935 81.634,27.88L81.724,28.598C81.243,28.659 80.701,28.682 80.092,28.688Z" style="fill:rgb(0,155,176);"/>
        <path id="Fill-22" d="M74.852,4.038L74.15,3.862C74.217,3.591 74.279,3.359 74.334,3.169L73.656,3.008L73.824,2.303L74.881,2.555C74.981,2.579 75.066,2.645 75.116,2.735C75.164,2.826 75.172,2.934 75.137,3.03C75.088,3.166 74.999,3.45 74.852,4.038" style="fill:rgb(0,155,176);"/>
        <path id="Fill-24" d="M69.768,2.081L67.435,1.524L67.604,0.82L69.936,1.376L69.768,2.081ZM72.879,2.822L70.546,2.266L70.714,1.562L73.047,2.118L72.879,2.822Z" style="fill:rgb(0,155,176);"/>
        <path id="Fill-26" d="M3.867,9.541C3.356,9.541 2.88,9.441 2.439,9.241C1.998,9.042 1.616,8.775 1.292,8.441C0.968,8.106 0.715,7.716 0.533,7.271C0.35,6.825 0.26,6.351 0.26,5.85L0.26,5.822C0.26,5.32 0.35,4.847 0.533,4.401C0.715,3.956 0.968,3.561 1.292,3.217C1.616,2.874 1.998,2.602 2.439,2.402C2.88,2.203 3.356,2.103 3.867,2.103C4.201,2.103 4.505,2.139 4.779,2.21C5.053,2.281 5.306,2.378 5.538,2.502C5.77,2.625 5.982,2.766 6.172,2.924C6.362,3.083 6.541,3.25 6.708,3.426L6.221,3.928C5.914,3.612 5.575,3.338 5.204,3.106C4.833,2.874 4.382,2.758 3.853,2.758C3.444,2.758 3.066,2.836 2.718,2.994C2.369,3.151 2.068,3.366 1.812,3.638C1.557,3.911 1.355,4.232 1.207,4.602C1.058,4.972 0.984,5.369 0.984,5.794L0.984,5.822C0.984,6.247 1.06,6.647 1.214,7.021C1.367,7.395 1.576,7.722 1.84,7.999C2.105,8.276 2.413,8.493 2.767,8.651C3.119,8.808 3.5,8.886 3.909,8.886C4.41,8.886 4.858,8.773 5.253,8.545C5.647,8.318 5.993,8.037 6.29,7.702L6.764,8.12C6.402,8.529 5.991,8.868 5.531,9.137C5.072,9.406 4.517,9.541 3.867,9.541" style="fill:rgb(0,155,176);"/>
        <path id="Fill-28" d="M10.357,9.541C9.911,9.541 9.512,9.469 9.159,9.325C8.807,9.181 8.507,8.979 8.261,8.719C8.015,8.459 7.829,8.15 7.704,7.793C7.579,7.435 7.516,7.043 7.516,6.616L7.516,2.27L8.199,2.27L8.199,6.49C8.199,7.224 8.393,7.812 8.784,8.253C9.174,8.693 9.731,8.914 10.455,8.914C10.798,8.914 11.121,8.852 11.423,8.726C11.725,8.601 11.987,8.427 12.21,8.204C12.433,7.981 12.607,7.714 12.732,7.403C12.857,7.092 12.92,6.751 12.92,6.379L12.92,2.27L13.603,2.27L13.603,9.374L12.92,9.374L12.92,8.051C12.679,8.468 12.353,8.821 11.945,9.109C11.536,9.397 11.007,9.541 10.357,9.541" style="fill:rgb(0,155,176);"/>
        <path id="Fill-30" d="M17.447,9.513C16.927,9.513 16.407,9.416 15.887,9.221C15.367,9.027 14.917,8.776 14.536,8.468L14.94,7.925C15.33,8.223 15.738,8.452 16.165,8.615C16.593,8.777 17.033,8.858 17.488,8.858C17.972,8.858 18.378,8.738 18.708,8.497C19.037,8.256 19.202,7.927 19.202,7.51L19.202,7.482C19.202,7.279 19.15,7.102 19.048,6.954C18.947,6.806 18.807,6.676 18.631,6.565C18.454,6.454 18.255,6.361 18.031,6.287C17.809,6.213 17.572,6.139 17.322,6.065C17.033,5.981 16.743,5.893 16.451,5.801C16.159,5.708 15.896,5.59 15.664,5.446C15.432,5.302 15.244,5.124 15.1,4.911C14.956,4.698 14.884,4.434 14.884,4.119L14.884,4.091C14.884,3.804 14.942,3.542 15.058,3.305C15.174,3.069 15.334,2.863 15.539,2.687C15.743,2.511 15.989,2.374 16.277,2.277C16.565,2.18 16.88,2.131 17.224,2.131C17.651,2.131 18.09,2.202 18.541,2.345C18.99,2.487 19.392,2.68 19.746,2.925L19.384,3.496C19.058,3.283 18.708,3.111 18.331,2.981C17.955,2.851 17.577,2.786 17.196,2.786C16.704,2.786 16.312,2.904 16.019,3.14C15.727,3.376 15.581,3.671 15.581,4.023L15.581,4.05C15.581,4.245 15.636,4.414 15.748,4.558C15.859,4.701 16.005,4.824 16.186,4.926C16.368,5.028 16.579,5.119 16.819,5.197C17.061,5.276 17.307,5.353 17.558,5.427C17.846,5.51 18.129,5.601 18.408,5.698C18.686,5.795 18.937,5.92 19.16,6.073C19.384,6.226 19.562,6.409 19.696,6.622C19.83,6.835 19.898,7.099 19.898,7.414L19.898,7.442C19.898,7.757 19.836,8.042 19.71,8.297C19.584,8.552 19.41,8.77 19.188,8.95C18.965,9.131 18.705,9.27 18.408,9.367C18.111,9.464 17.79,9.513 17.447,9.513" style="fill:rgb(0,155,176);"/>
        <path id="Fill-32" d="M23.394,9.499C23.115,9.499 22.855,9.462 22.614,9.387C22.373,9.313 22.161,9.195 21.98,9.032C21.799,8.87 21.658,8.666 21.555,8.42C21.453,8.174 21.402,7.883 21.402,7.549L21.402,2.897L20.371,2.897L20.371,2.27L21.402,2.27L21.402,0L22.085,0L22.085,2.27L24.578,2.27L24.578,2.897L22.085,2.897L22.085,7.469C22.085,7.979 22.217,8.335 22.482,8.539C22.746,8.743 23.088,8.844 23.505,8.844C23.682,8.844 23.849,8.827 24.007,8.792C24.164,8.757 24.346,8.695 24.55,8.607L24.55,9.248C24.364,9.332 24.181,9.395 24,9.436C23.819,9.478 23.616,9.499 23.394,9.499" style="fill:rgb(0,155,176);"/>
        <path id="Fill-34" d="M28.729,8.886C29.148,8.886 29.538,8.805 29.897,8.644C30.256,8.482 30.565,8.264 30.821,7.992C31.077,7.719 31.278,7.398 31.423,7.028C31.567,6.659 31.64,6.266 31.64,5.85L31.64,5.822C31.64,5.397 31.565,4.997 31.416,4.622C31.267,4.248 31.059,3.922 30.793,3.645C30.527,3.368 30.215,3.15 29.855,2.994C29.496,2.836 29.111,2.758 28.701,2.758C28.281,2.758 27.891,2.839 27.533,3C27.173,3.162 26.865,3.38 26.608,3.652C26.352,3.925 26.151,4.246 26.007,4.616C25.862,4.986 25.79,5.378 25.79,5.794L25.79,5.822C25.79,6.247 25.865,6.647 26.014,7.021C26.163,7.396 26.371,7.722 26.637,7.999C26.902,8.276 27.215,8.493 27.574,8.651C27.934,8.808 28.318,8.886 28.729,8.886M28.701,9.541C28.172,9.541 27.687,9.441 27.245,9.242C26.804,9.042 26.421,8.775 26.096,8.441C25.771,8.106 25.519,7.716 25.338,7.271C25.156,6.825 25.065,6.351 25.065,5.85L25.065,5.822C25.065,5.32 25.156,4.847 25.338,4.401C25.519,3.956 25.774,3.561 26.103,3.217C26.433,2.874 26.82,2.602 27.267,2.402C27.712,2.203 28.199,2.103 28.729,2.103C29.258,2.103 29.743,2.203 30.184,2.402C30.625,2.602 31.008,2.869 31.333,3.204C31.658,3.538 31.911,3.928 32.092,4.374C32.274,4.819 32.364,5.293 32.364,5.794L32.364,5.822C32.364,6.323 32.274,6.797 32.092,7.243C31.911,7.688 31.656,8.083 31.326,8.426C30.997,8.77 30.609,9.042 30.163,9.242C29.717,9.441 29.23,9.541 28.701,9.541" style="fill:rgb(0,155,176);"/>
        <path id="Fill-36" d="M33.422,2.27L34.105,2.27L34.105,3.538C34.216,3.352 34.344,3.174 34.488,3.001C34.631,2.83 34.796,2.677 34.982,2.542C35.167,2.407 35.384,2.301 35.63,2.221C35.876,2.143 36.157,2.103 36.472,2.103C36.779,2.103 37.06,2.145 37.315,2.229C37.57,2.312 37.796,2.424 37.99,2.563C38.185,2.702 38.355,2.865 38.499,3.05C38.643,3.236 38.766,3.431 38.868,3.635C38.979,3.44 39.114,3.25 39.272,3.064C39.43,2.879 39.613,2.714 39.822,2.57C40.031,2.426 40.268,2.312 40.532,2.229C40.797,2.145 41.097,2.103 41.431,2.103C41.848,2.103 42.227,2.175 42.566,2.319C42.905,2.463 43.193,2.663 43.429,2.918C43.666,3.174 43.848,3.484 43.973,3.851C44.098,4.218 44.161,4.624 44.161,5.07L44.161,9.374L43.478,9.374L43.478,5.153C43.478,4.383 43.292,3.786 42.921,3.364C42.55,2.941 42.034,2.73 41.375,2.73C41.078,2.73 40.793,2.786 40.518,2.897C40.245,3.008 40.006,3.171 39.801,3.385C39.597,3.598 39.434,3.86 39.314,4.171C39.193,4.483 39.133,4.838 39.133,5.237L39.133,9.374L38.45,9.374L38.45,5.112C38.45,4.369 38.265,3.786 37.893,3.364C37.522,2.941 37.016,2.73 36.375,2.73C36.059,2.73 35.762,2.795 35.484,2.925C35.205,3.055 34.963,3.236 34.759,3.468C34.555,3.7 34.394,3.969 34.279,4.276C34.163,4.583 34.105,4.917 34.105,5.279L34.105,9.374L33.422,9.374L33.422,2.27Z" style="fill:rgb(0,155,176);"/>
    </g>
</svg>
