<svg xmlns="http://www.w3.org/2000/svg" viewBox="0 0 164 70">
  <defs>
    <style>
      .cls-2{fill:#fff}.cls-3{fill:#0c99ae}
    </style>
  </defs>
  <g opacity=".5" id="more_fun" data-name="more fun">
    <path class="cls-2" d="M112.49 57.92A10.27 10.27 0 0 1 97.4 67a10.45 10.45 0 0 1-2.4-1.77l-9.76-9.65-5.18-5.12a5 5 0 0 1-1.47-3.52V8.48a1.68 1.68 0 0 1 1.67-1.68h17.2a1.68 1.68 0 0 1 1.68 1.68v30.43a3.75 3.75 0 0 0 1.12 2.68l9.16 9a10.28 10.28 0 0 1 3.07 7.32z"/>
    <path class="cls-3" d="M102.19 69A11 11 0 0 1 97 67.72a11.32 11.32 0 0 1-2.6-1.91L79.48 51a5.76 5.76 0 0 1-1.71-4.09V8.48A2.5 2.5 0 0 1 80.26 6h17.2A2.5 2.5 0 0 1 100 8.48v30.43a3 3 0 0 0 .88 2.1L110 50a11.06 11.06 0 0 1 3.31 7.9A11.08 11.08 0 0 1 102.19 69zM80.26 7.61a.87.87 0 0 0-.87.87v38.46a4.16 4.16 0 0 0 1.23 2.94l14.94 14.77a9.31 9.31 0 0 0 2.22 1.64 9.47 9.47 0 0 0 13.9-8.37 9.63 9.63 0 0 0-.88-4 9.44 9.44 0 0 0-2-2.75l-9.16-9a4.55 4.55 0 0 1-1.36-3.25V8.48a.87.87 0 0 0-.87-.87z"/>
    <path class="cls-3" d="M98.19 67.18l-1.58-.36a18.38 18.38 0 0 1 14.78-14l.28 1.6a16.76 16.76 0 0 0-13.48 12.76zM85.8 56.15L84.65 55a8.5 8.5 0 0 0 2.51-6 8.59 8.59 0 0 0-8.58-8.58v-1.67a10.2 10.2 0 0 1 7.22 17.4zM78.44 13.87H99v1.62H78.44z"/>
    <path class="cls-3" d="M95.68 10.05h1.08v4.64h-1.08zM92.66 10.05h1.08v4.64h-1.08zM89.63 10.05h1.08v4.64h-1.08zM86.61 10.05h1.08v4.64h-1.08zM83.58 10.05h1.08v4.64h-1.08zM80.56 10.05h1.08v4.64h-1.08z"/>
    <path class="cls-2" d="M123.42 52.93A10.28 10.28 0 0 1 108.34 62a10.51 10.51 0 0 1-2.42-1.77l-9.76-9.66L91 45.46A4.93 4.93 0 0 1 89.51 42V3.49a1.68 1.68 0 0 1 1.68-1.68h17.21a1.68 1.68 0 0 1 1.67 1.68v30.43a3.77 3.77 0 0 0 1.12 2.67l9.16 9a10.21 10.21 0 0 1 2.12 3 10.37 10.37 0 0 1 .95 4.34z"/>
    <path class="cls-3" d="M113.12 64a11.14 11.14 0 0 1-7.77-3.2L90.41 46a5.84 5.84 0 0 1-1.71-4V3.49A2.5 2.5 0 0 1 91.19 1h17.21a2.49 2.49 0 0 1 2.48 2.49v30.43a3 3 0 0 0 .88 2.09l9.16 9a11.07 11.07 0 0 1 2.28 3.23 11.2 11.2 0 0 1 1 4.67A11.08 11.08 0 0 1 113.12 64zM91.19 2.62a.87.87 0 0 0-.87.87V42a4.19 4.19 0 0 0 1.23 2.94l14.94 14.77A9.47 9.47 0 0 0 120 59.5a9.46 9.46 0 0 0-.18-13.32l-9.16-9a4.61 4.61 0 0 1-1.36-3.25V3.49a.87.87 0 0 0-.86-.87z"/>
    <path class="cls-3" d="M109.13 62.19l-1.58-.36a18.36 18.36 0 0 1 14.78-14l.28 1.6a16.73 16.73 0 0 0-13.48 12.76zM96.73 51.15L95.59 50a8.58 8.58 0 0 0-6.07-14.63v-1.61a10.19 10.19 0 0 1 7.21 17.39zM89.51 8.74h20.56v1.62H89.51z"/>
    <path class="cls-3" d="M106.75 4.92h1.08v4.64h-1.08zM103.72 4.92h1.08v4.64h-1.08zM100.7 4.92h1.08v4.64h-1.08zM97.68 4.92h1.08v4.64h-1.08zM94.65 4.92h1.08v4.64h-1.08zM91.63 4.92h1.08v4.64h-1.08z"/>
    <path class="cls-2" d="M74.49 57.92A10.27 10.27 0 0 1 59.4 67a10.45 10.45 0 0 1-2.4-1.77l-9.76-9.65-5.18-5.12a5 5 0 0 1-1.47-3.52V8.48a1.68 1.68 0 0 1 1.67-1.68h17.2a1.68 1.68 0 0 1 1.68 1.68v30.43a3.75 3.75 0 0 0 1.12 2.68l9.16 9a10.28 10.28 0 0 1 3.07 7.32z"/>
    <path class="cls-3" d="M64.19 69A11 11 0 0 1 59 67.72a11.32 11.32 0 0 1-2.6-1.91L41.48 51a5.76 5.76 0 0 1-1.71-4.09V8.48A2.5 2.5 0 0 1 42.26 6h17.2A2.5 2.5 0 0 1 62 8.48v30.43a3 3 0 0 0 .88 2.1L72 50a11.06 11.06 0 0 1 3.31 7.9A11.08 11.08 0 0 1 64.19 69zM42.26 7.61a.87.87 0 0 0-.87.87v38.46a4.16 4.16 0 0 0 1.23 2.94l14.94 14.77a9.31 9.31 0 0 0 2.22 1.64 9.47 9.47 0 0 0 13.9-8.37 9.63 9.63 0 0 0-.88-4 9.44 9.44 0 0 0-2-2.75l-9.16-9a4.55 4.55 0 0 1-1.36-3.25V8.48a.87.87 0 0 0-.87-.87z"/>
    <path class="cls-3" d="M60.19 67.18l-1.58-.36a18.38 18.38 0 0 1 14.78-14l.28 1.6a16.76 16.76 0 0 0-13.48 12.76zM47.8 56.15L46.65 55a8.5 8.5 0 0 0 2.51-6 8.59 8.59 0 0 0-8.58-8.58v-1.67a10.2 10.2 0 0 1 7.22 17.4zM40.44 13.87H61v1.62H40.44z"/>
    <path class="cls-3" d="M57.68 10.05h1.08v4.64h-1.08zM54.66 10.05h1.08v4.64h-1.08zM51.63 10.05h1.08v4.64h-1.08zM48.61 10.05h1.08v4.64h-1.08zM45.58 10.05h1.08v4.64h-1.08zM42.56 10.05h1.08v4.64h-1.08z"/>
    <path class="cls-2" d="M85.42 52.93A10.28 10.28 0 0 1 70.34 62a10.51 10.51 0 0 1-2.42-1.77l-9.76-9.66L53 45.46A4.93 4.93 0 0 1 51.51 42V3.49a1.68 1.68 0 0 1 1.68-1.68H70.4a1.68 1.68 0 0 1 1.67 1.68v30.43a3.77 3.77 0 0 0 1.12 2.67l9.16 9a10.21 10.21 0 0 1 2.12 3 10.37 10.37 0 0 1 .95 4.34z"/>
    <path class="cls-3" d="M75.12 64a11.14 11.14 0 0 1-7.77-3.2L52.41 46a5.84 5.84 0 0 1-1.71-4V3.49A2.5 2.5 0 0 1 53.19 1H70.4a2.49 2.49 0 0 1 2.48 2.49v30.43a3 3 0 0 0 .88 2.08l9.16 9a11.07 11.07 0 0 1 2.28 3.23 11.2 11.2 0 0 1 1 4.67A11.08 11.08 0 0 1 75.12 64zM53.19 2.62a.87.87 0 0 0-.87.87V42a4.19 4.19 0 0 0 1.23 2.94l14.94 14.72A9.47 9.47 0 0 0 82 59.5a9.46 9.46 0 0 0-.18-13.32l-9.16-9a4.61 4.61 0 0 1-1.36-3.25V3.49a.87.87 0 0 0-.86-.87z"/>
    <path class="cls-3" d="M71.13 62.19l-1.58-.36a18.36 18.36 0 0 1 14.78-14l.28 1.6a16.73 16.73 0 0 0-13.48 12.76zM58.73 51.15L57.59 50a8.58 8.58 0 0 0-6.07-14.63v-1.61a10.19 10.19 0 0 1 7.21 17.39zM51.51 8.74h20.56v1.62H51.51z"/>
    <path class="cls-3" d="M68.75 4.92h1.08v4.64h-1.08zM65.72 4.92h1.08v4.64h-1.08zM62.7 4.92h1.08v4.64H62.7zM59.68 4.92h1.08v4.64h-1.08zM56.65 4.92h1.08v4.64h-1.08zM53.63 4.92h1.08v4.64h-1.08z"/>
  </g>
</svg>
