<?xml version="1.0" encoding="UTF-8"?>
<svg width="51px" height="51px" viewBox="0 0 51 51" version="1.1" xmlns="http://www.w3.org/2000/svg" xmlns:xlink="http://www.w3.org/1999/xlink">
    <!-- Generator: Sketch 51.3 (57544) - http://www.bohemiancoding.com/sketch -->
    <title>made-in-usa</title>
    <desc>Created with Sketch.</desc>
    <defs></defs>
    <g id="Page-1" stroke="none" stroke-width="1" fill="none" fill-rule="evenodd">
        <g id="CSS-2019-Homepage-v02" transform="translate(-870.000000, -5238.000000)">
            <g id="made-in-usa" transform="translate(870.625939, 5238.425781)">
                <circle id="Oval" fill="#FFFFFF" fill-rule="nonzero" cx="25.1204332" cy="25.0242784" r="24.5435046"></circle>
                <g id="Group" transform="translate(1.442322, 1.442322)">
                    <g id="Shape">
                        <path d="M0.168270844,23.5338795 C0.168270844,25.91371 0.528851225,28.2214245 1.17789591,30.3849067 L4.32696457,30.3849067 L8.65392913,30.3849067 L12.9808937,30.3849067 L17.3078583,30.3849067 L21.6348228,30.3849067 L25.9617874,30.3849067 L30.288752,30.3849067 L34.6157165,30.3849067 L38.9426811,30.3849067 L43.2696457,30.3849067 L46.2504435,30.3849067 C46.8994882,28.2214245 47.2600685,25.91371 47.2600685,23.5338795 C47.2600685,20.5530817 46.7071786,17.6924773 45.6975536,15.0722599 L1.75482452,15.0722599 C0.745199453,17.6924773 0.168270844,20.5530817 0.168270844,23.5338795 Z"></path>
                        <path d="M23.7021503,0 C13.7020545,0 5.1442801,6.25005993 1.75482452,15.0722599 L45.6735149,15.0722599 C42.2600206,6.25005993 33.7262849,0 23.7021503,0 Z" fill="#0A74BB" fill-rule="nonzero"></path>
                        <path d="M1.17789591,30.3849067 C1.89905667,32.7406986 2.95675912,34.9282195 4.32696457,36.923431 L4.32696457,30.3849067 L1.17789591,30.3849067 Z" fill="#EF4A51" fill-rule="nonzero"></path>
                        <path d="M4.35100326,30.3849067 L4.37504195,30.3849067 L4.37504195,36.9474697 C5.60101524,38.7022942 7.04333677,40.2648092 8.67796783,41.6350146 L8.67796783,30.3849067 L4.35100326,30.3849067 Z" fill="#FFFFFF" fill-rule="nonzero"></path>
                        <path d="M4.35100326,30.3849067 L4.35100326,36.923431 C4.35100326,36.9474697 4.39395987,36.9474697 4.39395987,36.9715084 L4.39395987,30.4089454 L4.35100326,30.4089454 L4.35100326,30.3849067 Z" fill="#FFFFFF" fill-rule="nonzero"></path>
                        <path d="M8.67796783,30.3849067 L8.70200652,30.3849067 L8.70200652,41.6590533 C10.0241346,42.7407944 11.4664561,43.7023421 13.0049324,44.495619 L13.0049324,30.3849067 L8.67796783,30.3849067 Z" fill="#EF4A51" fill-rule="nonzero"></path>
                        <path d="M8.67796783,30.3849067 L8.67796783,41.6350146 C8.67796783,41.6350146 8.72092444,41.6590533 8.72092444,41.6590533 L8.72092444,30.3849067 L8.67796783,30.3849067 Z" fill="#EF4A51" fill-rule="nonzero"></path>
                        <path d="M13.0049324,30.3849067 L13.0289711,30.3849067 L13.0289711,44.5196577 C14.3991765,45.2167797 15.8174594,45.7696696 17.331897,46.2023661 L17.331897,30.3849067 L13.0049324,30.3849067 Z" fill="#FFFFFF" fill-rule="nonzero"></path>
                        <path d="M13.0049324,30.3849067 L13.0049324,44.495619 C13.0049324,44.495619 13.047889,44.495619 13.047889,44.5196577 L13.047889,30.3849067 L13.0049324,30.3849067 Z" fill="#FFFFFF" fill-rule="nonzero"></path>
                        <path d="M17.3078583,30.3849067 L17.331897,30.3849067 L17.331897,46.2023661 C18.7261411,46.5869852 20.1444239,46.8514108 21.6348228,46.9716042 L21.6348228,30.3849067 L17.3078583,30.3849067 Z" fill="#EF4A51" fill-rule="nonzero"></path>
                        <path d="M17.3078583,30.3849067 L17.3078583,46.2023661 C17.3078583,46.2023661 17.3508149,46.2023661 17.3508149,46.2023661 L17.3508149,30.3849067 L17.3078583,30.3849067 Z" fill="#EF4A51" fill-rule="nonzero"></path>
                        <path d="M21.6348228,30.3849067 L21.6588615,30.3849067 L21.6588615,46.9956429 C22.3319449,47.0437203 23.0050283,47.0917977 23.7021503,47.0917977 C24.4713885,47.0917977 25.2165879,47.0437203 25.9617874,46.9956429 L25.9617874,30.4089454 L21.6348228,30.3849067 Z" fill="#FFFFFF" fill-rule="nonzero"></path>
                        <path d="M21.6348228,30.3849067 L21.6348228,46.9716042 C21.6348228,46.9716042 21.6777794,46.9716042 21.6777794,46.9716042 L21.6777794,30.360868 L21.6348228,30.360868 L21.6348228,30.3849067 Z" fill="#FFFFFF" fill-rule="nonzero"></path>
                        <path d="M25.9617874,30.3849067 L25.9858261,30.3849067 L25.9858261,46.9716042 C27.4521863,46.8273721 28.8945078,46.5629465 30.288752,46.1542887 L30.288752,30.4089454 L25.9617874,30.3849067 Z" fill="#EF4A51" fill-rule="nonzero"></path>
                        <path d="M25.9617874,30.3849067 L25.9617874,46.9716042 C25.9617874,46.9716042 26.004744,46.9716042 26.004744,46.9716042 L26.004744,30.3849067 L25.9617874,30.3849067 Z" fill="#EF4A51" fill-rule="nonzero"></path>
                        <path d="M30.288752,30.3849067 L30.3127907,30.3849067 L30.3127907,46.13025 C31.8031896,45.6975536 33.2455111,45.120625 34.6157165,44.3994642 L34.6157165,30.3849067 L30.288752,30.3849067 Z" fill="#FFFFFF" fill-rule="nonzero"></path>
                        <path d="M30.288752,30.3849067 L30.288752,46.13025 C30.288752,46.13025 30.3317086,46.13025 30.3317086,46.13025 L30.3317086,30.3849067 L30.288752,30.3849067 Z" fill="#FFFFFF" fill-rule="nonzero"></path>
                        <path d="M34.6157165,30.3849067 L34.6397552,30.3849067 L34.6397552,44.3994642 C36.1782315,43.5821487 37.620553,42.620601 38.9426811,41.4907825 L38.9426811,30.3849067 L34.6157165,30.3849067 Z" fill="#EF4A51" fill-rule="nonzero"></path>
                        <path d="M34.6157165,30.3849067 L34.6157165,44.3994642 C34.6157165,44.3994642 34.6586731,44.3994642 34.6586731,44.3754255 L34.6586731,30.360868 L34.6157165,30.360868 L34.6157165,30.3849067 Z" fill="#EF4A51" fill-rule="nonzero"></path>
                        <path d="M38.9186424,30.3849067 L38.9426811,30.3849067 L38.9426811,41.4667438 C40.5773122,40.0724996 42.0436724,38.4619073 43.245607,36.6590054 L43.245607,30.3849067 L38.9186424,30.3849067 Z" fill="#FFFFFF" fill-rule="nonzero"></path>
                        <path d="M38.9186424,30.3849067 L38.9186424,41.4907825 C38.9186424,41.4907825 38.961599,41.4667438 38.961599,41.4667438 L38.961599,30.3849067 L38.9186424,30.3849067 Z" fill="#FFFFFF" fill-rule="nonzero"></path>
                        <path d="M43.245607,30.3849067 L43.2696457,30.3849067 L43.2696457,36.610928 C44.5436963,34.7118713 45.5533214,32.6205051 46.2264048,30.3849067 L43.245607,30.3849067 Z" fill="#EF4A51" fill-rule="nonzero"></path>
                        <path d="M43.245607,30.3849067 L43.245607,36.6590054 C43.245607,36.6349667 43.2885636,36.6349667 43.2885636,36.610928 L43.2885636,30.3849067 L43.245607,30.3849067 Z" fill="#EF4A51" fill-rule="nonzero"></path>
                    </g>
                </g>
                <polygon id="Shape" fill="#FFFFFF" fill-rule="nonzero" points="14.2309057 8.60585175 14.9280278 10.0000959 16.4905427 10.2404828 15.3607242 11.322224 15.6251498 12.8607002 14.2309057 12.1395395 12.8607002 12.8607002 13.1251259 11.322224 11.9953073 10.2404828 13.5337836 10.0000959"></polygon>
                <polygon id="Shape" fill="#FFFFFF" fill-rule="nonzero" points="25.1925493 4.95197056 25.8896713 6.3462147 27.4521863 6.58660162 26.3223678 7.66834276 26.5867934 9.20681905 25.1925493 8.48565829 23.8223438 9.20681905 24.0867694 7.66834276 22.9569509 6.58660162 24.4954272 6.3462147"></polygon>
                <polygon id="Shape" fill="#FFFFFF" fill-rule="nonzero" points="36.1541928 9.32701251 36.8513149 10.7452953 38.4138299 10.9616436 37.2840114 12.0433847 37.548437 13.6058997 36.1541928 12.8607002 34.7599487 13.6058997 35.048413 12.0433847 33.9185945 10.9616436 35.4570708 10.7452953"></polygon>
                <g id="Group" transform="translate(9.615477, 18.750180)" fill="#0A74BB" fill-rule="nonzero">
                    <polygon id="Shape" points="3.9183068 4.49523541 3.9183068 1.61059237 2.86060435 4.03850026 2.13944359 4.03850026 1.08174114 1.61059237 1.08174114 4.49523541 0.0721160761 4.49523541 0.0721160761 0.0721160761 1.29808937 0.0721160761 2.50002397 2.7163722 3.70195857 0.0721160761 4.92793187 0.0721160761 4.92793187 4.49523541 3.9183068 4.49523541"></polygon>
                    <path d="M7.30776238,3.67791988 L6.99525938,4.49523541 L5.84140217,4.49523541 L7.74045884,0.0721160761 L8.89431605,0.0721160761 L10.769334,4.49523541 L9.56739943,4.49523541 L9.25489643,3.67791988 L7.30776238,3.67791988 Z M8.26931006,1.2019346 L7.62026538,2.83656566 L8.89431605,2.83656566 L8.26931006,1.2019346 Z" id="Shape"></path>
                    <path d="M13.581861,0.0721160761 C14.9761051,0.0721160761 15.9376528,0.961547682 15.9376528,2.28367574 C15.9376528,3.58176511 14.9761051,4.49523541 13.5337836,4.49523541 L11.6828043,4.49523541 L11.6828043,0.0721160761 L13.581861,0.0721160761 Z M12.7885842,3.60580381 L13.581861,3.60580381 C14.2789831,3.60580381 14.7597569,3.07695258 14.7597569,2.30771444 C14.7597569,1.5144376 14.2309057,0.985586374 13.5337836,0.985586374 L12.7885842,0.985586374 L12.7885842,3.60580381 Z" id="Shape"></path>
                    <polygon id="Shape" points="18.1492125 0.961547682 18.1492125 1.85097929 20.2646174 1.85097929 20.2646174 2.74041089 18.1492125 2.74041089 18.1492125 3.60580381 20.5530817 3.60580381 20.5530817 4.49523541 17.019394 4.49523541 17.019394 0.0721160761 20.4809656 0.0721160761 20.4809656 0.961547682"></polygon>
                    <polygon id="Shape" points="23.7502277 4.49523541 23.7502277 0.0721160761 24.8800463 0.0721160761 24.8800463 4.49523541 23.7502277 4.49523541"></polygon>
                    <polygon id="Shape" points="29.351243 4.49523541 27.3079542 1.77886321 27.3079542 4.49523541 26.2502517 4.49523541 26.2502517 0.0721160761 27.2358381 0.0721160761 29.2791269 2.81252697 29.2791269 0.0721160761 30.3368294 0.0721160761 30.3368294 4.49523541 29.351243 4.49523541"></polygon>
                </g>
                <g id="Group" transform="translate(9.375090, 25.000240)" fill="#0A74BB" fill-rule="nonzero">
                    <polygon id="Shape" points="2.64425612 1.05770245 2.64425612 4.56735149 1.5144376 4.56735149 1.5144376 1.05770245 0.192309536 1.05770245 0.192309536 0.144232152 3.96638419 0.144232152 3.96638419 1.05770245"></polygon>
                    <polygon id="Shape" points="7.90872968 4.56735149 7.90872968 2.86060435 6.08178909 2.86060435 6.08178909 4.56735149 4.95197056 4.56735149 4.95197056 0.144232152 6.08178909 0.144232152 6.08178909 1.97117275 7.90872968 1.97117275 7.90872968 0.144232152 9.03854821 0.144232152 9.03854821 4.56735149"></polygon>
                    <polygon id="Shape" points="11.5385722 1.03366376 11.5385722 1.92309536 13.6539771 1.92309536 13.6539771 2.81252697 11.5385722 2.81252697 11.5385722 3.70195857 13.9424414 3.70195857 13.9424414 4.59139018 10.4327923 4.59139018 10.4327923 0.168270844 13.894364 0.168270844 13.894364 1.05770245 11.5385722 1.05770245"></polygon>
                    <path d="M21.1300103,2.7163722 C21.1300103,3.89426811 20.3607722,4.61542887 19.1107602,4.61542887 C17.8607482,4.61542887 17.0674713,3.87022942 17.0674713,2.7163722 L17.0674713,0.144232152 L18.1972899,0.144232152 L18.1972899,2.7163722 C18.1972899,3.3173395 18.5819089,3.67791988 19.1107602,3.67791988 C19.6396114,3.67791988 20.0001918,3.3173395 20.0001918,2.7163722 L20.0001918,0.144232152 L21.1300103,0.144232152 L21.1300103,2.7163722 Z" id="Shape"></path>
                    <path d="M25.8896713,0.600967301 L25.4569749,1.49039891 C25.0002397,1.22597329 24.3992724,1.03366376 24.038692,1.03366376 C23.7502277,1.03366376 23.5579182,1.12981853 23.5579182,1.34616675 C23.5579182,2.1154049 25.8896713,1.68270844 25.8896713,3.26926212 C25.8896713,4.15869372 25.0963945,4.61542887 24.1108081,4.61542887 C23.3656087,4.61542887 22.6204092,4.32696457 22.091558,3.9183068 L22.5242544,3.05291389 C22.9809896,3.46157165 23.654073,3.72599727 24.1108081,3.72599727 C24.4713885,3.72599727 24.6877367,3.58176511 24.6877367,3.34137819 C24.6877367,2.54810136 22.3559836,3.0288752 22.3559836,1.46636021 C22.3559836,0.649044685 23.0531057,0.144232152 24.1108081,0.144232152 C24.7838915,0.0961547682 25.4329362,0.288464304 25.8896713,0.600967301 Z" id="Shape"></path>
                    <path d="M28.0050762,3.75003596 L27.6925732,4.56735149 L26.538716,4.56735149 L28.4377727,0.144232152 L29.5916299,0.144232152 L31.4666479,4.56735149 L30.2647133,4.56735149 L29.9522103,3.75003596 L28.0050762,3.75003596 Z M28.9666239,1.27405068 L28.3175792,2.90868174 L29.5916299,2.90868174 L28.9666239,1.27405068 Z" id="Shape"></path>
                </g>
                <path d="M25.1204332,49.9283634 C11.39434,49.9283634 0.216348228,38.7503716 0.216348228,25.0242784 C0.216348228,11.2981853 11.39434,0.12019346 25.1204332,0.12019346 C38.8465263,0.12019346 50.0245181,11.2981853 50.0245181,25.0242784 C50.0245181,38.7503716 38.870565,49.9283634 25.1204332,49.9283634 Z M25.1204332,0.841354221 C11.8029978,0.841354221 0.937508989,11.6828043 0.937508989,25.0242784 C0.937508989,38.3657525 11.7789591,49.2072026 25.1204332,49.2072026 C38.4619073,49.2072026 49.3033574,38.3657525 49.3033574,25.0242784 C49.3033574,11.6828043 38.4619073,0.841354221 25.1204332,0.841354221 Z" id="Shape" fill="#EF4A51" fill-rule="nonzero"></path>
            </g>
        </g>
    </g>
</svg>